[1102/120508.855:ERROR:directory_reader_win.cc(43)] FindFirstFile: The system cannot find the path specified. (0x3)
[1104/150015.943:ERROR:directory_reader_win.cc(43)] FindFirstFile: The system cannot find the path specified. (0x3)
[1111/105234.448:ERROR:directory_reader_win.cc(43)] FindFirstFile: The system cannot find the path specified. (0x3)
[1111/113556.365:ERROR:directory_reader_win.cc(43)] FindFirstFile: The system cannot find the path specified. (0x3)
[1116/124122.981:ERROR:directory_reader_win.cc(43)] FindFirstFile: The system cannot find the path specified. (0x3)
[1117/135222.088:ERROR:directory_reader_win.cc(43)] FindFirstFile: The system cannot find the path specified. (0x3)
[1118/101304.858:ERROR:directory_reader_win.cc(43)] FindFirstFile: The system cannot find the path specified. (0x3)
[1118/105526.389:ERROR:directory_reader_win.cc(43)] FindFirstFile: The system cannot find the path specified. (0x3)
[1118/121045.565:ERROR:directory_reader_win.cc(43)] FindFirstFile: The system cannot find the path specified. (0x3)
[1118/133056.604:ERROR:directory_reader_win.cc(43)] FindFirstFile: The system cannot find the path specified. (0x3)
[1123/113603.629:ERROR:directory_reader_win.cc(43)] FindFirstFile: The system cannot find the path specified. (0x3)
[1125/155925.047:ERROR:directory_reader_win.cc(43)] FindFirstFile: The system cannot find the path specified. (0x3)
[1129/120331.083:ERROR:directory_reader_win.cc(43)] FindFirstFile: The system cannot find the path specified. (0x3)
[1201/101644.794:ERROR:directory_reader_win.cc(43)] FindFirstFile: The system cannot find the path specified. (0x3)
[1201/143130.107:ERROR:directory_reader_win.cc(43)] FindFirstFile: The system cannot find the path specified. (0x3)
[1202/105749.378:ERROR:directory_reader_win.cc(43)] FindFirstFile: The system cannot find the path specified. (0x3)
[1202/112927.150:ERROR:directory_reader_win.cc(43)] FindFirstFile: The system cannot find the path specified. (0x3)
[1203/121013.579:ERROR:directory_reader_win.cc(43)] FindFirstFile: The system cannot find the path specified. (0x3)
[1206/212450.999:ERROR:directory_reader_win.cc(43)] FindFirstFile: The system cannot find the path specified. (0x3)
[1207/152531.592:ERROR:directory_reader_win.cc(43)] FindFirstFile: The system cannot find the path specified. (0x3)
[1208/111341.294:ERROR:directory_reader_win.cc(43)] FindFirstFile: The system cannot find the path specified. (0x3)
[0105/113251.587:ERROR:crash_report_database_win.cc(496)] failed to stat report
[0105/113333.527:ERROR:crash_report_database_win.cc(496)] failed to stat report
[0106/102747.921:ERROR:crash_report_database_win.cc(496)] failed to stat report
[0106/140217.268:ERROR:crash_report_database_win.cc(496)] failed to stat report
[0107/101606.376:ERROR:crash_report_database_win.cc(496)] failed to stat report
[0111/105914.817:ERROR:crash_report_database_win.cc(496)] failed to stat report
[0111/111901.971:ERROR:crash_report_database_win.cc(496)] failed to stat report
[0111/112224.501:ERROR:crash_report_database_win.cc(496)] failed to stat report
[0117/144604.956:ERROR:crash_report_database_win.cc(496)] failed to stat report
[0117/145511.818:ERROR:crash_report_database_win.cc(496)] failed to stat report
[0117/150434.424:ERROR:crash_report_database_win.cc(496)] failed to stat report
[0117/151951.541:ERROR:crash_report_database_win.cc(496)] failed to stat report
[0118/100532.976:ERROR:crash_report_database_win.cc(496)] failed to stat report
[0121/103904.069:ERROR:crash_report_database_win.cc(496)] failed to stat report
[0126/150320.627:ERROR:crash_report_database_win.cc(496)] failed to stat report
[0126/151449.591:ERROR:crash_report_database_win.cc(496)] failed to stat report
[0126/195302.327:ERROR:crash_report_database_win.cc(496)] failed to stat report
[0131/141207.375:ERROR:crash_report_database_win.cc(496)] failed to stat report
